Lab/CA111-2_lab2/all_codes/CPU.vcd
$date
	Thu May 25 16:05:31 2023
$end
$version
	Icarus Verilog
$end
$timescale
	1s
$end
$scope module TestBench $end
$var reg 1 ! Clk $end
$var reg 1 " Reset $end
$var integer 32 # counter [31:0] $end
$var integer 32 $ flush [31:0] $end
$var integer 32 % i [31:0] $end
$var integer 32 & outfile [31:0] $end
$var integer 32 ' stall [31:0] $end
$scope module CPU $end
$var wire 1 ! clk_i $end
$var wire 1 " rst_i $end
$scope module ALU $end
$var wire 32 ( RS2data_i [31:0] $end
$var wire 32 ) RS1data_i [31:0] $end
$var wire 32 * RDdata_o [31:0] $end
$var wire 3 + ALUCtr_i [2:0] $end
$upscope $end
$scope module ALU_Control $end
$var wire 7 , func7_i [6:0] $end
$var wire 3 - func3_i [2:0] $end
$var wire 2 . ALUOp_i [1:0] $end
$var wire 3 / ALUCtr_o [2:0] $end
$upscope $end
$scope module Adder_pc $end
$var wire 32 0 Data2_i [31:0] $end
$var wire 32 1 Data_o [31:0] $end
$var wire 32 2 Data1_i [31:0] $end
$upscope $end
$scope module Branch_Unit $end
$var wire 32 3 pc_addr_i [31:0] $end
$var wire 32 4 immExtended_i [31:0] $end
$var wire 32 5 RS2data_i [31:0] $end
$var wire 32 6 RS1data_i [31:0] $end
$var wire 32 7 PCbranch_o [31:0] $end
$var wire 1 8 Flush_o $end
$var wire 1 9 Branch_i $end
$upscope $end
$scope module Control $end
$var wire 7 : opcode_i [6:0] $end
$var wire 1 ; RegWrite_o $end
$var wire 1 < NoOp_i $end
$var wire 1 = MemtoReg_o $end
$var wire 1 > MemWrite_o $end
$var wire 1 ? MemRead_o $end
$var wire 1 9 Branch_o $end
$var wire 1 @ ALUSrc_o $end
$var wire 2 A ALUOp_o [1:0] $end
$upscope $end
$scope module Data_Memory $end
$var wire 1 ! clk_i $end
$var wire 32 B data_o [31:0] $end
$var wire 32 C data_i [31:0] $end
$var wire 32 D addr_i [31:0] $end
$var wire 1 E MemWrite_i $end
$var wire 1 F MemRead_i $end
$upscope $end
$scope module EX_MEM $end
$var wire 32 G ALUResult_i [31:0] $end
$var wire 1 ! clk_i $end
$var wire 1 " rst_i $end
$var wire 1 H RegWrite_i $end
$var wire 5 I RDaddr_i [4:0] $end
$var wire 1 J MemtoReg_i $end
$var wire 1 K MemWrite_i $end
$var wire 32 L MemWriteData_i [31:0] $end
$var wire 1 M MemRead_i $end
$var reg 32 N ALUResult_o [31:0] $end
$var reg 1 F MemRead_o $end
$var reg 32 O MemWriteData_o [31:0] $end
$var reg 1 E MemWrite_o $end
$var reg 1 P MemtoReg_o $end
$var reg 5 Q RDaddr_o [4:0] $end
$var reg 1 R RegWrite_o $end
$upscope $end
$scope module Forwarding $end
$var wire 5 S MEM_RDaddr_i [4:0] $end
$var wire 1 R MEM_RegWrite_i $end
$var wire 1 T WB_RegWrite_i $end
$var wire 5 U WB_RDaddr_i [4:0] $end
$var wire 2 V Forward_B_o [1:0] $end
$var wire 2 W Forward_A_o [1:0] $end
$var wire 5 X EX_RS2addr_i [4:0] $end
$var wire 5 Y EX_RS1addr_i [4:0] $end
$upscope $end
$scope module Hazard_Detection $end
$var wire 1 Z Stall_o $end
$var wire 5 [ RS2addr_i [4:0] $end
$var wire 5 \ RS1addr_i [4:0] $end
$var wire 5 ] RDaddr_i [4:0] $end
$var wire 1 ^ PCWrite_o $end
$var wire 1 < NoOp_o $end
$var wire 1 M MemRead_i $end
$upscope $end
$scope module ID_EX $end
$var wire 2 _ ALUOp_i [1:0] $end
$var wire 1 @ ALUSrc_i $end
$var wire 1 ? MemRead_i $end
$var wire 1 > MemWrite_i $end
$var wire 1 = MemtoReg_i $end
$var wire 1 ; RegWrite_i $end
$var wire 1 ! clk_i $end
$var wire 1 " rst_i $end
$var wire 32 ` immExtended_i [31:0] $end
$var wire 7 a func7_i [6:0] $end
$var wire 3 b func3_i [2:0] $end
$var wire 32 c RS2data_i [31:0] $end
$var wire 5 d RS2addr_i [4:0] $end
$var wire 32 e RS1data_i [31:0] $end
$var wire 5 f RS1addr_i [4:0] $end
$var wire 5 g RDaddr_i [4:0] $end
$var reg 2 h ALUOp_o [1:0] $end
$var reg 1 i ALUSrc_o $end
$var reg 1 M MemRead_o $end
$var reg 1 K MemWrite_o $end
$var reg 1 J MemtoReg_o $end
$var reg 5 j RDaddr_o [4:0] $end
$var reg 5 k RS1addr_o [4:0] $end
$var reg 32 l RS1data_o [31:0] $end
$var reg 5 m RS2addr_o [4:0] $end
$var reg 32 n RS2data_o [31:0] $end
$var reg 1 H RegWrite_o $end
$var reg 3 o func3_o [2:0] $end
$var reg 7 p func7_o [6:0] $end
$var reg 32 q immExtended_o [31:0] $end
$upscope $end
$scope module IF_ID $end
$var wire 1 8 Flush_i $end
$var wire 1 Z Stall_i $end
$var wire 1 ! clk_i $end
$var wire 1 " rst_i $end
$var wire 32 r instr_i [31:0] $end
$var wire 32 s PC_i [31:0] $end
$var reg 32 t PC_o [31:0] $end
$var reg 32 u instr_o [31:0] $end
$upscope $end
$scope module Imm_Gen $end
$var wire 32 v instr_i [31:0] $end
$var wire 32 w immExtended_o [31:0] $end
$upscope $end
$scope module Instruction_Memory $end
$var wire 32 x instr_o [31:0] $end
$var wire 32 y addr_i [31:0] $end
$upscope $end
$scope module MEM_WB $end
$var wire 32 z ALUResult_i [31:0] $end
$var wire 32 { MemReadData_i [31:0] $end
$var wire 1 P MemtoReg_i $end
$var wire 5 | RDaddr_i [4:0] $end
$var wire 1 R RegWrite_i $end
$var wire 1 ! clk_i $end
$var wire 1 " rst_i $end
$var reg 32 } ALUResult_o [31:0] $end
$var reg 32 ~ MemReadData_o [31:0] $end
$var reg 1 !" MemtoReg_o $end
$var reg 5 "" RDaddr_o [4:0] $end
$var reg 1 T RegWrite_o $end
$upscope $end
$scope module MUX_WriteReg $end
$var wire 1 !" Choose_i $end
$var wire 32 #" Data1_i [31:0] $end
$var wire 32 $" Data2_i [31:0] $end
$var wire 32 %" Data_o [31:0] $end
$upscope $end
$scope module MUX_add4_branch $end
$var wire 1 8 Choose_i $end
$var wire 32 &" Data1_i [31:0] $end
$var wire 32 '" Data2_i [31:0] $end
$var wire 32 (" Data_o [31:0] $end
$upscope $end
$scope module MUX_imm_rs2 $end
$var wire 1 i Choose_i $end
$var wire 32 )" Data2_i [31:0] $end
$var wire 32 *" Data_o [31:0] $end
$var wire 32 +" Data1_i [31:0] $end
$upscope $end
$scope module MUX_rs1 $end
$var wire 2 ," Choose_i [1:0] $end
$var wire 32 -" Data1_i [31:0] $end
$var wire 32 ." Data2_i [31:0] $end
$var wire 32 /" Data3_i [31:0] $end
$var wire 32 0" Data4_i [31:0] $end
$var wire 32 1" Data_o [31:0] $end
$upscope $end
$scope module MUX_rs2 $end
$var wire 2 2" Choose_i [1:0] $end
$var wire 32 3" Data1_i [31:0] $end
$var wire 32 4" Data2_i [31:0] $end
$var wire 32 5" Data3_i [31:0] $end
$var wire 32 6" Data4_i [31:0] $end
$var wire 32 7" Data_o [31:0] $end
$upscope $end
$scope module PC $end
$var wire 1 ^ PCWrite_i $end
$var wire 1 ! clk_i $end
$var wire 32 8" pc_i [31:0] $end
$var wire 1 " rst_i $end
$var reg 32 9" pc_o [31:0] $end
$upscope $end
$scope module Registers $end
$var wire 5 :" RDaddr_i [4:0] $end
$var wire 32 ;" RDdata_i [31:0] $end
$var wire 5 <" RS1addr_i [4:0] $end
$var wire 5 =" RS2addr_i [4:0] $end
$var wire 1 T RegWrite_i $end
$var wire 1 ! clk_i $end
$var wire 1 " rst_i $end
$var wire 32 >" RS2data_o [31:0] $end
$var wire 32 ?" RS1data_o [31:0] $end
$var integer 32 @" i [31:0] $end
$upscope $end
$upscope $end
$upscope $end
$enddefinitions $end
#0
$dumpvars
bx @"
bx ?"
bx >"
bx ="
bx <"
bx ;"
bx :"
bx 9"
bx 8"
bx 7"
bz 6"
bx 5"
bx 4"
bx 3"
bx 2"
bx 1"
bz 0"
bx /"
bx ."
bx -"
bx ,"
bx +"
bx *"
bx )"
bx ("
bx '"
bx &"
bx %"
bx $"
bx #"
bx ""
x!"
bx ~
bx }
bx |
bx {
bx z
bx y
bx x
bx w
bx v
bx u
bx t
bx s
bx r
bx q
bx p
bx o
bx n
bx m
bx l
bx k
bx j
xi
bx h
bx g
bx f
bx e
bx d
bx c
bx b
bx a
bx `
bx _
x^
bx ]
bx \
bx [
xZ
bx Y
bx X
bx W
bx V
bx U
xT
bx S
xR
bx Q
xP
bx O
bx N
xM
bx L
xK
xJ
bx I
xH
bx G
xF
xE
bx D
bx C
bx B
bx A
x@
x?
x>
x=
x<
x;
bx :
x9
x8
bx 7
bx 6
bx 5
bx 4
bx 3
bx 2
bx 1
b100 0
bx /
bx .
bx -
bx ,
bx +
bx *
bx )
bx (
b0 '
b11 &
b100000 %
b0 $
b0 #
1"
0!
$end
#6
b0 *
b0 G
08
b11 +
b11 /
b0 (
b0 *"
1;
09
0>
0?
0=
1@
b100 ("
b100 8"
b0 L
b0 +"
b0 7"
b0 )
b0 1"
b0 A
b0 _
b0 7
b0 '"
1^
0Z
0<
b0 4
b0 `
b0 w
b0 V
b0 2"
b0 W
b0 ,"
b0 6
b0 e
b0 ?"
b0 5
b0 c
b0 >"
b110000010011 r
b110000010011 x
b0 f
b0 d
b0 b
b0 a
b0 g
b0 <"
b0 ="
b0 :
b0 \
b0 [
b0 B
b0 {
b0 %"
b0 ."
b0 4"
b0 ;"
b100 1
b100 &"
b0 2
b0 s
b0 y
b0 9"
b0 u
b0 v
b0 3
b0 t
b0 I
b0 ]
b0 j
b0 q
b0 )"
b0 ,
b0 p
b0 -
b0 o
b0 X
b0 m
b0 Y
b0 k
b0 n
b0 3"
b0 l
b0 -"
0i
b0 .
b0 h
0K
0M
0J
0H
b0 Q
b0 S
b0 |
b0 C
b0 O
b0 D
b0 N
b0 z
b0 /"
b0 5"
0E
0F
0P
0R
b0 U
b0 ""
b0 :"
b0 ~
b0 $"
b0 }
b0 #"
0!"
0T
b100000 @"
0"
#12
1"
#25
b11000 g
b10011 :
b10000000000110100010011 r
b10000000000110100010011 x
b1000 ("
b1000 8"
1i
1H
b110000010011 u
b110000010011 v
b1000 1
b1000 &"
b100 2
b100 s
b100 y
b100 9"
b1 #
1!
#50
0!
#75
b100 4
b100 `
b100 w
b10000000000111000010011 r
b10000000000111000010011 x
b1100 ("
b1100 8"
b100 d
b11010 g
b100 ="
b100 [
b1100 1
b1100 &"
b1000 2
b1000 s
b1000 y
b1000 9"
b10000000000110100010011 u
b10000000000110100010011 v
b1100 7
b1100 '"
b100 3
b100 t
b11000 I
b11000 ]
b11000 j
1R
b10 #
1!
#100
0!
#125
b100 *
b100 G
b100 (
b100 *"
b11100 g
b11111111111100000000011110010011 r
b11111111111100000000011110010011 x
b10000 ("
b10000 8"
1T
b11000 Q
b11000 S
b11000 |
b11010 I
b11010 ]
b11010 j
b100 q
b100 )"
b100 X
b100 m
b10000000000111000010011 u
b10000000000111000010011 v
b10000 7
b10000 '"
b1000 3
b1000 t
b10000 1
b10000 &"
b1100 2
b1100 s
b1100 y
b1100 9"
b11 #
1!
#150
0!
#175
b11111111111111111111111111111111 4
b11111111111111111111111111111111 `
b11111111111111111111111111111111 w
b111110 5
b111110 c
b111110 >"
b11110011010000110010110011 r
b11110011010000110010110011 x
b10100 ("
b10100 8"
b11111 d
b1111111 a
b1111 g
b11111 ="
b11111 [
b10100 1
b10100 &"
b10000 2
b10000 s
b10000 y
b10000 9"
b11111111111100000000011110010011 u
b11111111111100000000011110010011 v
b1010 7
b1010 '"
b1100 3
b1100 t
b11100 I
b11100 ]
b11100 j
b11010 Q
b11010 S
b11010 |
b100 D
b100 N
b100 z
b100 /"
b100 5"
b11000 U
b11000 ""
b11000 :"
b100 #
1!
#200
0!
#225
b11111111111111111111111111111111 *
b11111111111111111111111111111111 G
0@
b10 A
b10 _
b100 6
b100 e
b100 ?"
b111000 5
b111000 c
b111000 >"
b10000011100 4
b10000011100 `
b10000011100 w
b100 %"
b100 ."
b100 4"
b100 ;"
b11111111111111111111111111111111 (
b11111111111111111111111111111111 *"
b111110 L
b111110 +"
b111110 7"
b11010 f
b11100 d
b1 a
b11001 g
b11010 <"
b11100 ="
b110011 :
b11010 \
b11100 [
b11111111111111010000110100010011 r
b11111111111111010000110100010011 x
b11000 ("
b11000 8"
b11010 U
b11010 ""
b11010 :"
b100 }
b100 #"
b11100 Q
b11100 S
b11100 |
b1111 I
b1111 ]
b1111 j
b11111111111111111111111111111111 q
b11111111111111111111111111111111 )"
b1111111 ,
b1111111 p
b11111 X
b11111 m
b111110 n
b111110 3"
b11110011010000110010110011 u
b11110011010000110010110011 v
b100001001000 7
b100001001000 '"
b10000 3
b10000 t
b11000 1
b11000 &"
b10100 2
b10100 s
b10100 y
b10100 9"
b101 #
1!
#250
0!
#275
b101 +
b101 /
b10000 *
b10000 G
1@
b0 A
b0 _
b1 V
b1 2"
b11111111111111111111111111111111 4
b11111111111111111111111111111111 `
b11111111111111111111111111111111 w
b111110 5
b111110 c
b111110 >"
b11001010110110000011 r
b11001010110110000011 x
b11100 ("
b11100 8"
b11111 d
b1111111 a
b11010 g
b11111 ="
b10011 :
b11111 [
b100 L
b100 +"
b100 7"
b100 )
b100 1"
b100 (
b100 *"
b11100 1
b11100 &"
b11000 2
b11000 s
b11000 y
b11000 9"
b11111111111111010000110100010011 u
b11111111111111010000110100010011 v
b10010 7
b10010 '"
b10100 3
b10100 t
b11001 I
b11001 ]
b11001 j
b10000011100 q
b10000011100 )"
b1 ,
b1 p
b11100 X
b11100 m
b11010 Y
b11010 k
b111000 n
b111000 3"
b100 l
b100 -"
0i
b10 .
b10 h
b1111 Q
b1111 S
b1111 |
b111110 C
b111110 O
b11111111111111111111111111111111 D
b11111111111111111111111111111111 N
b11111111111111111111111111111111 z
b11111111111111111111111111111111 /"
b11111111111111111111111111111111 5"
b11100 U
b11100 ""
b11100 :"
b110 #
1!
#300
0!
#325
b11 +
b11 /
b11 *
b11 G
1?
1=
b111110 L
b111110 +"
b111110 7"
b0 V
b0 2"
b0 4
b0 `
b0 w
b11111111111111111111111111100111 6
b11111111111111111111111111100111 e
b11111111111111111111111111100111 ?"
b0 5
b0 c
b0 >"
b11111111111111111111111111111111 %"
b11111111111111111111111111111111 ."
b11111111111111111111111111111111 4"
b11111111111111111111111111111111 ;"
b11111111111111111111111111111111 (
b11111111111111111111111111111111 *"
b11001 f
b0 d
b10 b
b0 a
b11011 g
b11001 <"
b0 ="
b11 :
b11001 \
b0 [
b1101111000000110000110011 r
b1101111000000110000110011 x
b100000 ("
b100000 8"
b1111 U
b1111 ""
b1111 :"
b11111111111111111111111111111111 }
b11111111111111111111111111111111 #"
b11001 Q
b11001 S
b11001 |
b100 C
b100 O
b10000 D
b10000 N
b10000 z
b10000 /"
b10000 5"
b11010 I
b11010 ]
b11010 j
b11111111111111111111111111111111 q
b11111111111111111111111111111111 )"
b1111111 ,
b1111111 p
b11111 X
b11111 m
b111110 n
b111110 3"
1i
b0 .
b0 h
b11001010110110000011 u
b11001010110110000011 v
b11000 7
b11000 '"
b11000 3
b11000 t
b100000 1
b100000 &"
b11100 2
b11100 s
b11100 y
b11100 9"
b111 #
1!
#350
0!
#375
0;
0^
1Z
1<
b10000 *
b10000 G
0?
0=
0@
b0 A
b0 _
b1 W
b1 ,"
b11111111111111111111111111100101 5
b11111111111111111111111111100101 c
b11111111111111111111111111100101 >"
b1100 4
b1100 `
b1100 w
b0 6
b0 e
b0 ?"
b111111010000010001100011 r
b111111010000010001100011 x
b100100 ("
b100100 8"
b11000 f
b11011 d
b0 b
b11000 g
b11000 <"
b11011 ="
b110011 :
b11000 \
b11011 [
b0 (
b0 *"
b0 L
b0 +"
b0 7"
b10000 )
b10000 1"
b10000 %"
b10000 ."
b10000 4"
b10000 ;"
b100100 1
b100100 &"
b100000 2
b100000 s
b100000 y
b100000 9"
b1101111000000110000110011 u
b1101111000000110000110011 v
b110100 7
b110100 '"
b11100 3
b11100 t
b11011 I
b11011 ]
b11011 j
b0 q
b0 )"
b0 ,
b0 p
b10 -
b10 o
b0 X
b0 m
b11001 Y
b11001 k
b0 n
b0 3"
b11111111111111111111111111100111 l
b11111111111111111111111111100111 -"
1M
1J
b11010 Q
b11010 S
b11010 |
b111110 C
b111110 O
b11 D
b11 N
b11 z
b11 /"
b11 5"
b11001 U
b11001 ""
b11001 :"
b10000 }
b10000 #"
b1000 #
1!
#400
0!
#425
b10000 *
b10000 G
1;
b10 A
b10 _
b0 )
b0 1"
b0 W
b0 ,"
1^
0Z
0<
b10 V
b10 2"
b10000 (
b10000 *"
b11 %"
b11 ."
b11 4"
b11 ;"
b11101 B
b11101 {
b10000 L
b10000 +"
b10000 7"
b11010 U
b11010 ""
b11010 :"
b11 }
b11 #"
b11011 Q
b11011 S
b11011 |
b0 C
b0 O
b10000 D
b10000 N
b10000 z
b10000 /"
b10000 5"
1F
1P
b11000 I
b11000 ]
b11000 j
b1100 q
b1100 )"
b0 -
b0 o
b11011 X
b11011 m
b11000 Y
b11000 k
b11111111111111111111111111100101 n
b11111111111111111111111111100101 3"
b0 l
b0 -"
0i
0M
0J
0H
b1001 #
b1 '
1!
#450
0!
#475
b11101 *
b11101 G
0;
b11101 (
b11101 *"
19
1@
b11101 L
b11101 +"
b11101 7"
b1 A
b1 _
b100 4
b100 `
b100 w
b11 6
b11 e
b11 ?"
b1 V
b1 2"
b11111111111111111111111111111111 5
b11111111111111111111111111111111 c
b11111111111111111111111111111111 >"
b11111110000000000000011011100011 r
b11111110000000000000011011100011 x
b101000 ("
b101000 8"
b11010 f
b1111 d
b1000 g
b11010 <"
b1111 ="
b1100011 :
b11010 \
b1111 [
b0 B
b0 {
b11101 %"
b11101 ."
b11101 4"
b11101 ;"
b101000 1
b101000 &"
b100100 2
b100100 s
b100100 y
b100100 9"
b111111010000010001100011 u
b111111010000010001100011 v
b101000 7
b101000 '"
b100000 3
b100000 t
b10 .
b10 h
1H
b11000 Q
b11000 S
b11000 |
b10000 C
b10000 O
0F
0P
0R
b11011 U
b11011 ""
b11011 :"
b11101 ~
b11101 $"
b10000 }
b10000 #"
1!"
b1010 #
1!
#500
0!
#525
b111 *
b111 G
18
b11111111111111111111111111111111 L
b11111111111111111111111111111111 +"
b11111111111111111111111111111111 7"
b0 V
b0 2"
b11111111111111111111111111110110 4
b11111111111111111111111111110110 `
b11111111111111111111111111110110 w
b0 6
b0 e
b0 ?"
b0 5
b0 c
b0 >"
b10000 %"
b10000 ."
b10000 4"
b10000 ;"
b11 )
b11 1"
b100 (
b100 *"
b0 f
b0 d
b1111111 a
b1101 g
b0 <"
b0 ="
b0 \
b0 [
b1100000000010111000100011 r
b1100000000010111000100011 x
b10000 ("
b10000 8"
b11000 U
b11000 ""
b11000 :"
b0 ~
b0 $"
0!"
0T
b11101 C
b11101 O
b11101 D
b11101 N
b11101 z
b11101 /"
b11101 5"
1R
b1000 I
b1000 ]
b1000 j
b100 q
b100 )"
b1111 X
b1111 m
b11010 Y
b11010 k
b11111111111111111111111111111111 n
b11111111111111111111111111111111 3"
b11 l
b11 -"
1i
b1 .
b1 h
0H
b11111110000000000000011011100011 u
b11111110000000000000011011100011 v
b10000 7
b10000 '"
b100100 3
b100100 t
b101100 1
b101100 &"
b101000 2
b101000 s
b101000 y
b101000 9"
b1011 #
1!
#550
0!
#575
08
1;
b11111111111111111111111111110110 *
b11111111111111111111111111110110 G
09
b0 A
b0 _
b0 4
b0 `
b0 w
b11110011010000110010110011 r
b11110011010000110010110011 x
b0 a
b0 g
b0 :
b10100 ("
b10100 8"
b11111111111111111111111111110110 (
b11111111111111111111111111110110 *"
b0 L
b0 +"
b0 7"
b0 )
b0 1"
b11101 %"
b11101 ."
b11101 4"
b11101 ;"
b10100 1
b10100 &"
b10000 2
b10000 s
b10000 y
b10000 9"
b0 u
b0 v
b0 7
b0 '"
b0 3
b0 t
b1101 I
b1101 ]
b1101 j
b11111111111111111111111111110110 q
b11111111111111111111111111110110 )"
b1111111 ,
b1111111 p
b0 X
b0 m
b0 Y
b0 k
b0 n
b0 3"
b0 l
b0 -"
b1000 Q
b1000 S
b1000 |
b11111111111111111111111111111111 C
b11111111111111111111111111111111 O
b111 D
b111 N
b111 z
b111 /"
b111 5"
0R
b11101 }
b11101 #"
1T
b1100 #
b1 $
1!
#600
0!
#625
b0 *
b0 G
0@
b10 A
b10 _
b11 6
b11 e
b11 ?"
b100 5
b100 c
b100 >"
b10000011100 4
b10000011100 `
b10000011100 w
b111 %"
b111 ."
b111 4"
b111 ;"
b0 (
b0 *"
b11010 f
b11100 d
b1 a
b11001 g
b11010 <"
b11100 ="
b110011 :
b11010 \
b11100 [
b11111111111111010000110100010011 r
b11111111111111010000110100010011 x
b11000 ("
b11000 8"
b1000 U
b1000 ""
b1000 :"
b111 }
b111 #"
0T
b1101 Q
b1101 S
b1101 |
b0 C
b0 O
b11111111111111111111111111110110 D
b11111111111111111111111111110110 N
b11111111111111111111111111110110 z
b11111111111111111111111111110110 /"
b11111111111111111111111111110110 5"
b0 I
b0 ]
b0 j
b0 q
b0 )"
b0 ,
b0 p
b0 .
b0 h
1H
b11110011010000110010110011 u
b11110011010000110010110011 v
b100001001000 7
b100001001000 '"
b10000 3
b10000 t
b11000 1
b11000 &"
b10100 2
b10100 s
b10100 y
b10100 9"
b1101 #
1!
#650
0!
#675
b101 +
b101 /
b1100 *
b1100 G
1@
b0 A
b0 _
b111110 5
b111110 c
b111110 >"
b11111111111111111111111111111111 4
b11111111111111111111111111111111 `
b11111111111111111111111111111111 w
b100 (
b100 *"
b11001010110110000011 r
b11001010110110000011 x
b11100 ("
b11100 8"
b11111 d
b1111111 a
b11010 g
b11111 ="
b10011 :
b11111 [
b100 L
b100 +"
b100 7"
b11 )
b11 1"
b11111111111111111111111111110110 %"
b11111111111111111111111111110110 ."
b11111111111111111111111111110110 4"
b11111111111111111111111111110110 ;"
b11100 1
b11100 &"
b11000 2
b11000 s
b11000 y
b11000 9"
b11111111111111010000110100010011 u
b11111111111111010000110100010011 v
b10010 7
b10010 '"
b10100 3
b10100 t
b11001 I
b11001 ]
b11001 j
b10000011100 q
b10000011100 )"
b1 ,
b1 p
b11100 X
b11100 m
b11010 Y
b11010 k
b100 n
b100 3"
b11 l
b11 -"
0i
b10 .
b10 h
b0 Q
b0 S
b0 |
b0 D
b0 N
b0 z
b0 /"
b0 5"
1R
b1101 U
b1101 ""
b1101 :"
b11111111111111111111111111110110 }
b11111111111111111111111111110110 #"
b1110 #
1!
#700
0!
#725
b11 +
b11 /
b10 *
b10 G
1?
1=
b0 4
b0 `
b0 w
b10000 6
b10000 e
b10000 ?"
b0 5
b0 c
b0 >"
b0 %"
b0 ."
b0 4"
b0 ;"
b111110 L
b111110 +"
b111110 7"
b11111111111111111111111111111111 (
b11111111111111111111111111111111 *"
b11001 f
b0 d
b10 b
b0 a
b11011 g
b11001 <"
b0 ="
b11 :
b11001 \
b0 [
b1101111000000110000110011 r
b1101111000000110000110011 x
b100000 ("
b100000 8"
b0 U
b0 ""
b0 :"
b0 }
b0 #"
1T
b11001 Q
b11001 S
b11001 |
b100 C
b100 O
b1100 D
b1100 N
b1100 z
b1100 /"
b1100 5"
b11010 I
b11010 ]
b11010 j
b11111111111111111111111111111111 q
b11111111111111111111111111111111 )"
b1111111 ,
b1111111 p
b11111 X
b11111 m
b111110 n
b111110 3"
1i
b0 .
b0 h
b11001010110110000011 u
b11001010110110000011 v
b11000 7
b11000 '"
b11000 3
b11000 t
b100000 1
b100000 &"
b11100 2
b11100 s
b11100 y
b11100 9"
b1111 #
1!
#750
0!
#775
0;
0^
1Z
1<
b1100 *
b1100 G
0?
0=
0@
b0 A
b0 _
b1 W
b1 ,"
b1100 4
b1100 `
b1100 w
b11101 6
b11101 e
b11101 ?"
b11101 5
b11101 c
b11101 >"
b111111010000010001100011 r
b111111010000010001100011 x
b100100 ("
b100100 8"
b11000 f
b11011 d
b0 b
b11000 g
b11000 <"
b11011 ="
b110011 :
b11000 \
b11011 [
b0 (
b0 *"
b0 L
b0 +"
b0 7"
b1100 )
b1100 1"
b1100 %"
b1100 ."
b1100 4"
b1100 ;"
b100100 1
b100100 &"
b100000 2
b100000 s
b100000 y
b100000 9"
b1101111000000110000110011 u
b1101111000000110000110011 v
b110100 7
b110100 '"
b11100 3
b11100 t
b11011 I
b11011 ]
b11011 j
b0 q
b0 )"
b0 ,
b0 p
b10 -
b10 o
b0 X
b0 m
b11001 Y
b11001 k
b0 n
b0 3"
b10000 l
b10000 -"
1M
1J
b11010 Q
b11010 S
b11010 |
b111110 C
b111110 O
b10 D
b10 N
b10 z
b10 /"
b10 5"
b11001 U
b11001 ""
b11001 :"
b1100 }
b1100 #"
b10000 #
1!
#800
0!
#825
b101001 *
b101001 G
1;
b10 A
b10 _
b11101 )
b11101 1"
b0 W
b0 ,"
1^
0Z
0<
b10 V
b10 2"
b1100 (
b1100 *"
b10 %"
b10 ."
b10 4"
b10 ;"
b10010 B
b10010 {
b1100 L
b1100 +"
b1100 7"
b11010 U
b11010 ""
b11010 :"
b10 }
b10 #"
b11011 Q
b11011 S
b11011 |
b0 C
b0 O
b1100 D
b1100 N
b1100 z
b1100 /"
b1100 5"
1F
1P
b11000 I
b11000 ]
b11000 j
b1100 q
b1100 )"
b0 -
b0 o
b11011 X
b11011 m
b11000 Y
b11000 k
b11101 n
b11101 3"
b11101 l
b11101 -"
0i
0M
0J
0H
b10001 #
b10 '
1!
#850
0!
#875
b101111 *
b101111 G
0;
19
1@
b10010 (
b10010 *"
b1 A
b1 _
b100 4
b100 `
b100 w
b10010 L
b10010 +"
b10010 7"
b10 6
b10 e
b10 ?"
b1 V
b1 2"
b11111111111111111111111111111111 5
b11111111111111111111111111111111 c
b11111111111111111111111111111111 >"
b11111110000000000000011011100011 r
b11111110000000000000011011100011 x
b101000 ("
b101000 8"
b11010 f
b1111 d
b1000 g
b11010 <"
b1111 ="
b1100011 :
b11010 \
b1111 [
b0 B
b0 {
b10010 %"
b10010 ."
b10010 4"
b10010 ;"
b101000 1
b101000 &"
b100100 2
b100100 s
b100100 y
b100100 9"
b111111010000010001100011 u
b111111010000010001100011 v
b101000 7
b101000 '"
b100000 3
b100000 t
b10 .
b10 h
1H
b11000 Q
b11000 S
b11000 |
b1100 C
b1100 O
b101001 D
b101001 N
b101001 z
b101001 /"
b101001 5"
0F
0P
0R
b11011 U
b11011 ""
b11011 :"
b10010 ~
b10010 $"
b1100 }
b1100 #"
1!"
b10010 #
1!
#900
0!
#925
b110 *
b110 G
18
b11111111111111111111111111111111 L
b11111111111111111111111111111111 +"
b11111111111111111111111111111111 7"
b0 V
b0 2"
b11111111111111111111111111110110 4
b11111111111111111111111111110110 `
b11111111111111111111111111110110 w
b0 6
b0 e
b0 ?"
b0 5
b0 c
b0 >"
b101001 %"
b101001 ."
b101001 4"
b101001 ;"
b10 )
b10 1"
b100 (
b100 *"
b0 f
b0 d
b1111111 a
b1101 g
b0 <"
b0 ="
b0 \
b0 [
b1100000000010111000100011 r
b1100000000010111000100011 x
b10000 ("
b10000 8"
b11000 U
b11000 ""
b11000 :"
b0 ~
b0 $"
b101001 }
b101001 #"
0!"
0T
b10010 C
b10010 O
b101111 D
b101111 N
b101111 z
b101111 /"
b101111 5"
1R
b1000 I
b1000 ]
b1000 j
b100 q
b100 )"
b1111 X
b1111 m
b11010 Y
b11010 k
b11111111111111111111111111111111 n
b11111111111111111111111111111111 3"
b10 l
b10 -"
1i
b1 .
b1 h
0H
b11111110000000000000011011100011 u
b11111110000000000000011011100011 v
b10000 7
b10000 '"
b100100 3
b100100 t
b101100 1
b101100 &"
b101000 2
b101000 s
b101000 y
b101000 9"
b10011 #
1!
#950
0!
#975
08
1;
b11111111111111111111111111110110 *
b11111111111111111111111111110110 G
09
b0 A
b0 _
b0 4
b0 `
b0 w
b11110011010000110010110011 r
b11110011010000110010110011 x
b0 a
b0 g
b0 :
b10100 ("
b10100 8"
b11111111111111111111111111110110 (
b11111111111111111111111111110110 *"
b0 L
b0 +"
b0 7"
b0 )
b0 1"
b101111 %"
b101111 ."
b101111 4"
b101111 ;"
b10100 1
b10100 &"
b10000 2
b10000 s
b10000 y
b10000 9"
b0 u
b0 v
b0 7
b0 '"
b0 3
b0 t
b1101 I
b1101 ]
b1101 j
b11111111111111111111111111110110 q
b11111111111111111111111111110110 )"
b1111111 ,
b1111111 p
b0 X
b0 m
b0 Y
b0 k
b0 n
b0 3"
b0 l
b0 -"
b1000 Q
b1000 S
b1000 |
b11111111111111111111111111111111 C
b11111111111111111111111111111111 O
b110 D
b110 N
b110 z
b110 /"
b110 5"
0R
b101111 }
b101111 #"
1T
b10100 #
b10 $
1!
#1000
0!
