Lab/CA111-2_lab3/all_codes/CPU.vcd
$date
	Fri Jun  9 19:17:16 2023
$end
$version
	Icarus Verilog
$end
$timescale
	1s
$end
$scope module TestBench $end
$var reg 1 ! Clk $end
$var reg 1 " Reset $end
$var integer 32 # counter [31:0] $end
$var integer 32 $ i [31:0] $end
$var integer 32 % outfile [31:0] $end
$scope module CPU $end
$var wire 1 ! clk_i $end
$var wire 1 " rst_i $end
$scope module ALU $end
$var wire 32 & RS2data_i [31:0] $end
$var wire 32 ' RS1data_i [31:0] $end
$var wire 32 ( RDdata_o [31:0] $end
$var wire 3 ) ALUCtr_i [2:0] $end
$upscope $end
$scope module ALU_Control $end
$var wire 7 * func7_i [6:0] $end
$var wire 3 + func3_i [2:0] $end
$var wire 2 , ALUOp_i [1:0] $end
$var wire 3 - ALUCtr_o [2:0] $end
$upscope $end
$scope module Adder_pc $end
$var wire 32 . Data2_i [31:0] $end
$var wire 32 / Data_o [31:0] $end
$var wire 32 0 Data1_i [31:0] $end
$upscope $end
$scope module Branch_Predictor $end
$var wire 32 1 ALUResult_i [31:0] $end
$var wire 1 ! clk_i $end
$var wire 1 " rst_i $end
$var wire 1 2 Predict_o $end
$var wire 32 3 PC_o [31:0] $end
$var wire 1 4 IF_ID_EX_Flush_o $end
$var wire 32 5 EX_immExtended_i [31:0] $end
$var wire 1 2 EX_Predict_i $end
$var wire 32 6 EX_PC_i [31:0] $end
$var wire 1 7 EX_Branch_i $end
$var reg 2 8 BHT [1:0] $end
$upscope $end
$scope module Branch_Unit $end
$var wire 1 4 IF_ID_EX_Flush_i $end
$var wire 32 9 PC_Correct_i [31:0] $end
$var wire 1 2 Predict_i $end
$var wire 32 : PCbranch_o [31:0] $end
$var wire 32 ; ID_immExtended_i [31:0] $end
$var wire 32 < ID_PC_i [31:0] $end
$var wire 1 = Flush_o $end
$var wire 1 > Branch_i $end
$upscope $end
$scope module Control $end
$var wire 7 ? opcode_i [6:0] $end
$var wire 1 @ RegWrite_o $end
$var wire 1 A NoOp_i $end
$var wire 1 B MemtoReg_o $end
$var wire 1 C MemWrite_o $end
$var wire 1 D MemRead_o $end
$var wire 1 > Branch_o $end
$var wire 1 E ALUSrc_o $end
$var wire 2 F ALUOp_o [1:0] $end
$upscope $end
$scope module Data_Memory $end
$var wire 1 ! clk_i $end
$var wire 32 G data_o [31:0] $end
$var wire 32 H data_i [31:0] $end
$var wire 32 I addr_i [31:0] $end
$var wire 1 J MemWrite_i $end
$var wire 1 K MemRead_i $end
$upscope $end
$scope module EX_MEM $end
$var wire 32 L ALUResult_i [31:0] $end
$var wire 1 ! clk_i $end
$var wire 1 " rst_i $end
$var wire 1 M RegWrite_i $end
$var wire 5 N RDaddr_i [4:0] $end
$var wire 1 O MemtoReg_i $end
$var wire 1 P MemWrite_i $end
$var wire 32 Q MemWriteData_i [31:0] $end
$var wire 1 R MemRead_i $end
$var reg 32 S ALUResult_o [31:0] $end
$var reg 1 K MemRead_o $end
$var reg 32 T MemWriteData_o [31:0] $end
$var reg 1 J MemWrite_o $end
$var reg 1 U MemtoReg_o $end
$var reg 5 V RDaddr_o [4:0] $end
$var reg 1 W RegWrite_o $end
$upscope $end
$scope module Forwarding $end
$var wire 5 X MEM_RDaddr_i [4:0] $end
$var wire 1 W MEM_RegWrite_i $end
$var wire 1 Y WB_RegWrite_i $end
$var wire 5 Z WB_RDaddr_i [4:0] $end
$var wire 2 [ Forward_B_o [1:0] $end
$var wire 2 \ Forward_A_o [1:0] $end
$var wire 5 ] EX_RS2addr_i [4:0] $end
$var wire 5 ^ EX_RS1addr_i [4:0] $end
$upscope $end
$scope module Hazard_Detection $end
$var wire 1 _ Stall_o $end
$var wire 5 ` RS2addr_i [4:0] $end
$var wire 5 a RS1addr_i [4:0] $end
$var wire 5 b RDaddr_i [4:0] $end
$var wire 1 c PCWrite_o $end
$var wire 1 A NoOp_o $end
$var wire 1 R MemRead_i $end
$upscope $end
$scope module ID_EX $end
$var wire 2 d ALUOp_i [1:0] $end
$var wire 1 E ALUSrc_i $end
$var wire 1 > Branch_i $end
$var wire 1 4 Flush_i $end
$var wire 1 D MemRead_i $end
$var wire 1 C MemWrite_i $end
$var wire 1 B MemtoReg_i $end
$var wire 1 @ RegWrite_i $end
$var wire 1 ! clk_i $end
$var wire 1 " rst_i $end
$var wire 32 e immExtended_i [31:0] $end
$var wire 7 f func7_i [6:0] $end
$var wire 3 g func3_i [2:0] $end
$var wire 32 h RS2data_i [31:0] $end
$var wire 5 i RS2addr_i [4:0] $end
$var wire 32 j RS1data_i [31:0] $end
$var wire 5 k RS1addr_i [4:0] $end
$var wire 5 l RDaddr_i [4:0] $end
$var wire 32 m PC_i [31:0] $end
$var reg 2 n ALUOp_o [1:0] $end
$var reg 1 o ALUSrc_o $end
$var reg 1 7 Branch_o $end
$var reg 1 R MemRead_o $end
$var reg 1 P MemWrite_o $end
$var reg 1 O MemtoReg_o $end
$var reg 32 p PC_o [31:0] $end
$var reg 5 q RDaddr_o [4:0] $end
$var reg 5 r RS1addr_o [4:0] $end
$var reg 32 s RS1data_o [31:0] $end
$var reg 5 t RS2addr_o [4:0] $end
$var reg 32 u RS2data_o [31:0] $end
$var reg 1 M RegWrite_o $end
$var reg 3 v func3_o [2:0] $end
$var reg 7 w func7_o [6:0] $end
$var reg 32 x immExtended_o [31:0] $end
$upscope $end
$scope module IF_ID $end
$var wire 1 = Flush_i $end
$var wire 1 _ Stall_i $end
$var wire 1 ! clk_i $end
$var wire 1 " rst_i $end
$var wire 32 y instr_i [31:0] $end
$var wire 32 z PC_i [31:0] $end
$var reg 32 { PC_o [31:0] $end
$var reg 32 | instr_o [31:0] $end
$upscope $end
$scope module Imm_Gen $end
$var wire 32 } instr_i [31:0] $end
$var wire 32 ~ immExtended_o [31:0] $end
$upscope $end
$scope module Instruction_Memory $end
$var wire 32 !" instr_o [31:0] $end
$var wire 32 "" addr_i [31:0] $end
$upscope $end
$scope module MEM_WB $end
$var wire 32 #" ALUResult_i [31:0] $end
$var wire 32 $" MemReadData_i [31:0] $end
$var wire 1 U MemtoReg_i $end
$var wire 5 %" RDaddr_i [4:0] $end
$var wire 1 W RegWrite_i $end
$var wire 1 ! clk_i $end
$var wire 1 " rst_i $end
$var reg 32 &" ALUResult_o [31:0] $end
$var reg 32 '" MemReadData_o [31:0] $end
$var reg 1 (" MemtoReg_o $end
$var reg 5 )" RDaddr_o [4:0] $end
$var reg 1 Y RegWrite_o $end
$upscope $end
$scope module MUX_WriteReg $end
$var wire 1 (" Choose_i $end
$var wire 32 *" Data1_i [31:0] $end
$var wire 32 +" Data2_i [31:0] $end
$var wire 32 ," Data_o [31:0] $end
$upscope $end
$scope module MUX_add4_branch $end
$var wire 1 = Choose_i $end
$var wire 32 -" Data1_i [31:0] $end
$var wire 32 ." Data2_i [31:0] $end
$var wire 32 /" Data_o [31:0] $end
$upscope $end
$scope module MUX_imm_rs2 $end
$var wire 1 o Choose_i $end
$var wire 32 0" Data2_i [31:0] $end
$var wire 32 1" Data_o [31:0] $end
$var wire 32 2" Data1_i [31:0] $end
$upscope $end
$scope module MUX_rs1 $end
$var wire 2 3" Choose_i [1:0] $end
$var wire 32 4" Data1_i [31:0] $end
$var wire 32 5" Data2_i [31:0] $end
$var wire 32 6" Data3_i [31:0] $end
$var wire 32 7" Data4_i [31:0] $end
$var wire 32 8" Data_o [31:0] $end
$upscope $end
$scope module MUX_rs2 $end
$var wire 2 9" Choose_i [1:0] $end
$var wire 32 :" Data1_i [31:0] $end
$var wire 32 ;" Data2_i [31:0] $end
$var wire 32 <" Data3_i [31:0] $end
$var wire 32 =" Data4_i [31:0] $end
$var wire 32 >" Data_o [31:0] $end
$upscope $end
$scope module PC $end
$var wire 1 c PCWrite_i $end
$var wire 1 ! clk_i $end
$var wire 32 ?" pc_i [31:0] $end
$var wire 1 " rst_i $end
$var reg 32 @" pc_o [31:0] $end
$upscope $end
$scope module Registers $end
$var wire 5 A" RDaddr_i [4:0] $end
$var wire 32 B" RDdata_i [31:0] $end
$var wire 5 C" RS1addr_i [4:0] $end
$var wire 5 D" RS2addr_i [4:0] $end
$var wire 1 Y RegWrite_i $end
$var wire 1 ! clk_i $end
$var wire 1 " rst_i $end
$var wire 32 E" RS2data_o [31:0] $end
$var wire 32 F" RS1data_o [31:0] $end
$var integer 32 G" i [31:0] $end
$upscope $end
$upscope $end
$upscope $end
$enddefinitions $end
#0
$dumpvars
bx G"
bx F"
bx E"
bx D"
bx C"
bx B"
bx A"
bx @"
bx ?"
bx >"
bz ="
bx <"
bx ;"
bx :"
bx 9"
bx 8"
bz 7"
bx 6"
bx 5"
bx 4"
bx 3"
bx 2"
bx 1"
bx 0"
bx /"
bx ."
bx -"
bx ,"
bx +"
bx *"
bx )"
x("
bx '"
bx &"
bx %"
bx $"
bx #"
bx ""
bx !"
bx ~
bx }
bx |
bx {
bx z
bx y
bx x
bx w
bx v
bx u
bx t
bx s
bx r
bx q
bx p
xo
bx n
bx m
bx l
bx k
bx j
bx i
bx h
bx g
bx f
bx e
bx d
xc
bx b
bx a
bx `
x_
bx ^
bx ]
bx \
bx [
bx Z
xY
bx X
xW
bx V
xU
bx T
bx S
xR
bx Q
xP
xO
bx N
xM
bx L
xK
xJ
bx I
bx H
bx G
bx F
xE
xD
xC
xB
xA
x@
bx ?
x>
x=
bx <
bx ;
bx :
bx 9
bx 8
x7
bx 6
bx 5
x4
bx 3
x2
bx 1
bx 0
bx /
b100 .
bx -
bx ,
bx +
bx *
bx )
bx (
bx '
bx &
b11 %
b100000 $
b0 #
1"
0!
$end
#6
b0 (
b0 1
b0 L
0=
b11 )
b11 -
b100 /"
b100 ?"
b0 &
b0 1"
1E
1@
0>
0C
0D
0B
b0 :
b0 ."
b0 Q
b0 2"
b0 >"
b0 '
b0 8"
b0 F
b0 d
04
1c
0_
0A
12
b0 ;
b0 e
b0 ~
b0 [
b0 9"
b0 \
b0 3"
b0 j
b0 F"
b0 h
b0 E"
b10100000000000100010011 y
b10100000000000100010011 !"
b0 k
b0 i
b0 g
b0 f
b0 l
b0 C"
b0 D"
b0 ?
b0 a
b0 `
b100 3
b100 9
b0 G
b0 $"
b0 ,"
b0 5"
b0 ;"
b0 B"
b100 /
b100 -"
b0 0
b0 z
b0 ""
b0 @"
b0 |
b0 }
b0 <
b0 m
b0 {
07
b0 6
b0 p
b0 N
b0 b
b0 q
b0 5
b0 x
b0 0"
b0 *
b0 w
b0 +
b0 v
b0 ]
b0 t
b0 ^
b0 r
b0 u
b0 :"
b0 s
b0 4"
0o
b0 ,
b0 n
0P
0R
0O
0M
b0 V
b0 X
b0 %"
b0 H
b0 T
b0 I
b0 S
b0 #"
b0 6"
b0 <"
0J
0K
0U
0W
b0 Z
b0 )"
b0 A"
b0 '"
b0 +"
b0 &"
b0 *"
0("
0Y
b11 8
b100000 G"
0"
#12
1"
#25
b1010 :
b1010 ."
b101 ;
b101 e
b101 ~
b101 i
b10 l
b101 D"
b10011 ?
b101 `
b100000000000010010011 y
b100000000000010010011 !"
b1000 /"
b1000 ?"
1o
1M
b10100000000000100010011 |
b10100000000000100010011 }
b1000 /
b1000 -"
b100 0
b100 z
b100 ""
b100 @"
b1 #
1!
#50
0!
#75
b101 (
b101 1
b101 L
b1 ;
b1 e
b1 ~
b10000000001000010001100011 y
b10000000001000010001100011 !"
b1100 /"
b1100 ?"
b1 i
b1 l
b1 D"
b1 `
b110 :
b110 ."
b101 &
b101 1"
b1100 /
b1100 -"
b1000 0
b1000 z
b1000 ""
b1000 @"
b100000000000010010011 |
b100000000000010010011 }
b100 <
b100 m
b100 {
b10 N
b10 b
b10 q
b101 5
b101 x
b101 0"
b101 ]
b101 t
1W
b10 #
1!
#100
0!
#125
1=
b1 (
b1 1
b1 L
0E
0@
1>
b1 F
b1 d
b10100 ;
b10100 e
b10100 ~
b1000 3
b1000 9
b1 &
b1 1"
b1 k
b0 i
b1 f
b1000 l
b1 C"
b0 D"
b1100011 ?
b1 a
b0 `
b110000 :
b110000 ."
b100001000000010010011 y
b100001000000010010011 !"
b110000 /"
b110000 ?"
1Y
b10 V
b10 X
b10 %"
b101 I
b101 S
b101 #"
b101 6"
b101 <"
b100 6
b100 p
b1 N
b1 b
b1 q
b1 5
b1 x
b1 0"
b1 ]
b1 t
b10000000001000010001100011 |
b10000000001000010001100011 }
b1000 <
b1000 m
b1000 {
b10000 /
b10000 -"
b1100 0
b1100 z
b1100 ""
b1100 @"
b11 #
1!
#150
0!
#175
1=
b110 )
b110 -
1E
1@
b1 (
b1 1
b1 L
0>
b0 F
b0 d
14
b1 '
b1 8"
b0 ;
b0 e
b0 ~
b1100 /"
b1100 ?"
b10 \
b10 3"
b0 y
b0 !"
b0 k
b0 f
b0 l
b0 C"
b0 ?
b0 a
b1100 :
b1100 ."
b1100 3
b1100 9
b0 &
b0 1"
b101 ,"
b101 5"
b101 ;"
b101 B"
b110100 /
b110100 -"
b110000 0
b110000 z
b110000 ""
b110000 @"
b0 |
b0 }
b0 <
b0 m
b0 {
17
b1000 6
b1000 p
b1000 N
b1000 b
b1000 q
b10100 5
b10100 x
b10100 0"
b1 *
b1 w
b0 ]
b0 t
b1 ^
b1 r
0o
b1 ,
b1 n
0M
b1 V
b1 X
b1 %"
b1 I
b1 S
b1 #"
b1 6"
b1 <"
b10 Z
b10 )"
b10 A"
b101 &"
b101 *"
b100 #
1!
#200
0!
#225
b0 (
b0 1
b0 L
b11 )
b11 -
0=
04
b10000 /"
b10000 ?"
b0 '
b0 8"
b0 :
b0 ."
b0 \
b0 3"
b1 ,"
b1 5"
b1 ;"
b1 B"
b100 3
b100 9
b100001000000010010011 y
b100001000000010010011 !"
b10 8
b1 Z
b1 )"
b1 A"
b1 &"
b1 *"
b1000 V
b1000 X
b1000 %"
0W
07
b0 6
b0 p
b0 N
b0 b
b0 q
b0 5
b0 x
b0 0"
b0 *
b0 w
b0 ^
b0 r
b0 ,
b0 n
b10000 /
b10000 -"
b1100 0
b1100 z
b1100 ""
b1100 @"
b101 #
1!
#250
0!
#275
b1 ;
b1 e
b1 ~
b1 j
b1 F"
b1 h
b1 E"
b1000001000100001100011 y
b1000001000100001100011 !"
b10100 /"
b10100 ?"
b1 k
b1 i
b1 l
b1 C"
b1 D"
b10011 ?
b1 a
b1 `
b1110 :
b1110 ."
b10100 /
b10100 -"
b10000 0
b10000 z
b10000 ""
b10000 @"
b100001000000010010011 |
b100001000000010010011 }
b1100 <
b1100 m
b1100 {
1o
1M
b0 V
b0 X
b0 %"
b0 I
b0 S
b0 #"
b0 6"
b0 <"
b1000 Z
b1000 )"
b1000 A"
0Y
b110 #
1!
#300
0!
#325
1=
b10 (
b10 1
b10 L
0E
0@
1>
b1 F
b1 d
b101 h
b101 E"
b1000 ;
b1000 e
b1000 ~
b0 ,"
b0 5"
b0 ;"
b0 B"
b10000 3
b10000 9
b1 &
b1 1"
b1 Q
b1 2"
b1 >"
b1 '
b1 8"
b10 i
b10000 l
b10 D"
b1100011 ?
b10 `
b100000 :
b100000 ."
b11111110000000000000110011100011 y
b11111110000000000000110011100011 !"
b100000 /"
b100000 ?"
b0 Z
b0 )"
b0 A"
b0 &"
b0 *"
1W
b1100 6
b1100 p
b1 N
b1 b
b1 q
b1 5
b1 x
b1 0"
b1 ]
b1 t
b1 ^
b1 r
b1 u
b1 :"
b1 s
b1 4"
b1000001000100001100011 |
b1000001000100001100011 }
b10000 <
b10000 m
b10000 {
b11000 /
b11000 -"
b10100 0
b10100 z
b10100 ""
b10100 @"
b111 #
1!
#350
0!
#375
1=
b110 )
b110 -
b11111111111111111111111111111101 (
b11111111111111111111111111111101 1
b11111111111111111111111111111101 L
1E
1@
0>
b0 F
b0 d
b10 '
b10 8"
14
b10 \
b10 3"
b0 j
b0 F"
b0 h
b0 E"
b0 ;
b0 e
b0 ~
b10100 /"
b10100 ?"
b101 &
b101 1"
b11111110000000001000111011100011 y
b11111110000000001000111011100011 !"
b0 k
b0 i
b0 l
b0 C"
b0 D"
b0 ?
b0 a
b0 `
b10100 :
b10100 ."
b10100 3
b10100 9
b101 Q
b101 2"
b101 >"
b100100 /
b100100 -"
b100000 0
b100000 z
b100000 ""
b100000 @"
b0 |
b0 }
b0 <
b0 m
b0 {
17
b10000 6
b10000 p
b10000 N
b10000 b
b10000 q
b1000 5
b1000 x
b1000 0"
b10 ]
b10 t
b101 u
b101 :"
0o
b1 ,
b1 n
0M
b1 V
b1 X
b1 %"
b1 H
b1 T
b10 I
b10 S
b10 #"
b10 6"
b10 <"
1Y
b1000 #
1!
#400
0!
#425
b11 )
b11 -
b0 (
b0 1
b0 L
0=
02
04
b11000 /"
b11000 ?"
b0 '
b0 8"
b0 :
b0 ."
b0 \
b0 3"
b0 &
b0 1"
b10 ,"
b10 5"
b10 ;"
b10 B"
b0 3
b0 9
b0 Q
b0 2"
b0 >"
b11111110000000000000110011100011 y
b11111110000000000000110011100011 !"
b1 8
b1 Z
b1 )"
b1 A"
b10 &"
b10 *"
b10000 V
b10000 X
b10000 %"
b101 H
b101 T
b11111111111111111111111111111101 I
b11111111111111111111111111111101 S
b11111111111111111111111111111101 #"
b11111111111111111111111111111101 6"
b11111111111111111111111111111101 <"
0W
07
b0 6
b0 p
b0 N
b0 b
b0 q
b0 5
b0 x
b0 0"
b0 ]
b0 t
b0 ^
b0 r
b0 u
b0 :"
b0 s
b0 4"
b0 ,
b0 n
b11000 /
b11000 -"
b10100 0
b10100 z
b10100 ""
b10100 @"
b1001 #
1!
#450
0!
#475
0E
0@
1>
b1 F
b1 d
b11111111111111111111111111111100 ;
b11111111111111111111111111111100 e
b11111111111111111111111111111100 ~
b10011 y
b10011 !"
b11100 /"
b11100 ?"
b1111111 f
b11001 l
b1100011 ?
b1100 :
b1100 ."
b11111111111111111111111111111101 ,"
b11111111111111111111111111111101 5"
b11111111111111111111111111111101 ;"
b11111111111111111111111111111101 B"
b11100 /
b11100 -"
b11000 0
b11000 z
b11000 ""
b11000 @"
b11111110000000000000110011100011 |
b11111110000000000000110011100011 }
b10100 <
b10100 m
b10100 {
1o
1M
b0 V
b0 X
b0 %"
b0 H
b0 T
b0 I
b0 S
b0 #"
b0 6"
b0 <"
b10000 Z
b10000 )"
b10000 A"
b11111111111111111111111111111101 &"
b11111111111111111111111111111101 *"
0Y
b1010 #
1!
#500
0!
#525
b110 )
b110 -
1=
1E
1@
0>
b0 F
b0 d
14
b0 ;
b0 e
b0 ~
b0 ,"
b0 5"
b0 ;"
b0 B"
b1100 3
b1100 9
b0 f
b0 l
b10011 ?
b1100 :
b1100 ."
b1100 /"
b1100 ?"
b0 Z
b0 )"
b0 A"
b0 &"
b0 *"
1W
17
b10100 6
b10100 p
b11001 N
b11001 b
b11001 q
b11111111111111111111111111111100 5
b11111111111111111111111111111100 x
b11111111111111111111111111111100 0"
b1111111 *
b1111111 w
0o
b1 ,
b1 n
0M
b10011 |
b10011 }
b11000 <
b11000 m
b11000 {
b100000 /
b100000 -"
b11100 0
b11100 z
b11100 ""
b11100 @"
b1011 #
1!
#550
0!
#575
b11 )
b11 -
0=
04
b10000 /"
b10000 ?"
12
b0 :
b0 ."
b100001000000010010011 y
b100001000000010010011 !"
b0 ?
b100 3
b100 9
b10000 /
b10000 -"
b1100 0
b1100 z
b1100 ""
b1100 @"
b0 |
b0 }
b0 <
b0 m
b0 {
07
b0 6
b0 p
b0 N
b0 b
b0 q
b0 5
b0 x
b0 0"
b0 *
b0 w
b0 ,
b0 n
b11001 V
b11001 X
b11001 %"
0W
1Y
b10 8
b1100 #
1!
#600
0!
#625
b1 ;
b1 e
b1 ~
b10 j
b10 F"
b10 h
b10 E"
b1 k
b1 i
b1 l
b1 C"
b1 D"
b10011 ?
b1 a
b1 `
b1110 :
b1110 ."
b1000001000100001100011 y
b1000001000100001100011 !"
b10100 /"
b10100 ?"
b11001 Z
b11001 )"
b11001 A"
0Y
b0 V
b0 X
b0 %"
1o
1M
b100001000000010010011 |
b100001000000010010011 }
b1100 <
b1100 m
b1100 {
b10100 /
b10100 -"
b10000 0
b10000 z
b10000 ""
b10000 @"
b1101 #
1!
#650
0!
#675
1=
0E
0@
b11 (
b11 1
b11 L
1>
b1 F
b1 d
b101 h
b101 E"
b1000 ;
b1000 e
b1000 ~
b11111110000000000000110011100011 y
b11111110000000000000110011100011 !"
b100000 /"
b100000 ?"
b10 i
b10000 l
b10 D"
b1100011 ?
b10 `
b100000 :
b100000 ."
b10000 3
b10000 9
b1 &
b1 1"
b10 Q
b10 2"
b10 >"
b10 '
b10 8"
b11000 /
b11000 -"
b10100 0
b10100 z
b10100 ""
b10100 @"
b1000001000100001100011 |
b1000001000100001100011 }
b10000 <
b10000 m
b10000 {
b1100 6
b1100 p
b1 N
b1 b
b1 q
b1 5
b1 x
b1 0"
b1 ]
b1 t
b1 ^
b1 r
b10 u
b10 :"
b10 s
b10 4"
1W
b0 Z
b0 )"
b0 A"
b1110 #
1!
#700
0!
#725
1=
b110 )
b110 -
b11111111111111111111111111111110 (
b11111111111111111111111111111110 1
b11111111111111111111111111111110 L
1E
1@
b11 '
b11 8"
0>
b0 F
b0 d
b10 \
b10 3"
14
b0 j
b0 F"
b0 h
b0 E"
b0 ;
b0 e
b0 ~
b10100 /"
b10100 ?"
b10100 3
b10100 9
b101 Q
b101 2"
b101 >"
b101 &
b101 1"
b0 k
b0 i
b0 l
b0 C"
b0 D"
b0 ?
b0 a
b0 `
b10100 :
b10100 ."
b11111110000000001000111011100011 y
b11111110000000001000111011100011 !"
1Y
b1 V
b1 X
b1 %"
b10 H
b10 T
b11 I
b11 S
b11 #"
b11 6"
b11 <"
17
b10000 6
b10000 p
b10000 N
b10000 b
b10000 q
b1000 5
b1000 x
b1000 0"
b10 ]
b10 t
b101 u
b101 :"
0o
b1 ,
b1 n
0M
b0 |
b0 }
b0 <
b0 m
b0 {
b100100 /
b100100 -"
b100000 0
b100000 z
b100000 ""
b100000 @"
b1111 #
1!
#750
0!
#775
b11 )
b11 -
b0 (
b0 1
b0 L
0=
04
b11000 /"
b11000 ?"
b0 '
b0 8"
02
b0 :
b0 ."
b0 &
b0 1"
b0 \
b0 3"
b11111110000000000000110011100011 y
b11111110000000000000110011100011 !"
b0 3
b0 9
b0 Q
b0 2"
b0 >"
b11 ,"
b11 5"
b11 ;"
b11 B"
b11000 /
b11000 -"
b10100 0
b10100 z
b10100 ""
b10100 @"
07
b0 6
b0 p
b0 N
b0 b
b0 q
b0 5
b0 x
b0 0"
b0 ]
b0 t
b0 ^
b0 r
b0 u
b0 :"
b0 s
b0 4"
b0 ,
b0 n
b10000 V
b10000 X
b10000 %"
b101 H
b101 T
b11111111111111111111111111111110 I
b11111111111111111111111111111110 S
b11111111111111111111111111111110 #"
b11111111111111111111111111111110 6"
b11111111111111111111111111111110 <"
0W
b1 Z
b1 )"
b1 A"
b11 &"
b11 *"
b1 8
b10000 #
1!
#800
0!
#825
0E
0@
1>
b1 F
b1 d
b11111111111111111111111111111100 ;
b11111111111111111111111111111100 e
b11111111111111111111111111111100 ~
b11111111111111111111111111111110 ,"
b11111111111111111111111111111110 5"
b11111111111111111111111111111110 ;"
b11111111111111111111111111111110 B"
b1111111 f
b11001 l
b1100011 ?
b1100 :
b1100 ."
b10011 y
b10011 !"
b11100 /"
b11100 ?"
b10000 Z
b10000 )"
b10000 A"
b11111111111111111111111111111110 &"
b11111111111111111111111111111110 *"
0Y
b0 V
b0 X
b0 %"
b0 H
b0 T
b0 I
b0 S
b0 #"
b0 6"
b0 <"
1o
1M
b11111110000000000000110011100011 |
b11111110000000000000110011100011 }
b10100 <
b10100 m
b10100 {
b11100 /
b11100 -"
b11000 0
b11000 z
b11000 ""
b11000 @"
b10001 #
1!
#850
0!
#875
b110 )
b110 -
1=
1E
1@
0>
b0 F
b0 d
14
b0 ;
b0 e
b0 ~
b1100 /"
b1100 ?"
b0 f
b0 l
b10011 ?
b1100 :
b1100 ."
b1100 3
b1100 9
b0 ,"
b0 5"
b0 ;"
b0 B"
b100000 /
b100000 -"
b11100 0
b11100 z
b11100 ""
b11100 @"
b10011 |
b10011 }
b11000 <
b11000 m
b11000 {
17
b10100 6
b10100 p
b11001 N
b11001 b
b11001 q
b11111111111111111111111111111100 5
b11111111111111111111111111111100 x
b11111111111111111111111111111100 0"
b1111111 *
b1111111 w
0o
b1 ,
b1 n
0M
1W
b0 Z
b0 )"
b0 A"
b0 &"
b0 *"
b10010 #
1!
#900
0!
#925
b11 )
b11 -
0=
12
04
b10000 /"
b10000 ?"
b0 :
b0 ."
b100 3
b100 9
b0 ?
b100001000000010010011 y
b100001000000010010011 !"
b10 8
1Y
b11001 V
b11001 X
b11001 %"
0W
07
b0 6
b0 p
b0 N
b0 b
b0 q
b0 5
b0 x
b0 0"
b0 *
b0 w
b0 ,
b0 n
b0 |
b0 }
b0 <
b0 m
b0 {
b10000 /
b10000 -"
b1100 0
b1100 z
b1100 ""
b1100 @"
b10011 #
1!
#950
0!
#975
b1 ;
b1 e
b1 ~
b11 j
b11 F"
b11 h
b11 E"
b1000001000100001100011 y
b1000001000100001100011 !"
b10100 /"
b10100 ?"
b1 k
b1 i
b1 l
b1 C"
b1 D"
b10011 ?
b1 a
b1 `
b1110 :
b1110 ."
b10100 /
b10100 -"
b10000 0
b10000 z
b10000 ""
b10000 @"
b100001000000010010011 |
b100001000000010010011 }
b1100 <
b1100 m
b1100 {
1o
1M
b0 V
b0 X
b0 %"
b11001 Z
b11001 )"
b11001 A"
0Y
b10100 #
1!
#1000
0!
#1025
1=
b100 (
b100 1
b100 L
0E
0@
1>
b1 F
b1 d
b101 h
b101 E"
b1000 ;
b1000 e
b1000 ~
b10000 3
b10000 9
b1 &
b1 1"
b11 Q
b11 2"
b11 >"
b11 '
b11 8"
b10 i
b10000 l
b10 D"
b1100011 ?
b10 `
b100000 :
b100000 ."
b11111110000000000000110011100011 y
b11111110000000000000110011100011 !"
b100000 /"
b100000 ?"
b0 Z
b0 )"
b0 A"
1W
b1100 6
b1100 p
b1 N
b1 b
b1 q
b1 5
b1 x
b1 0"
b1 ]
b1 t
b1 ^
b1 r
b11 u
b11 :"
b11 s
b11 4"
b1000001000100001100011 |
b1000001000100001100011 }
b10000 <
b10000 m
b10000 {
b11000 /
b11000 -"
b10100 0
b10100 z
b10100 ""
b10100 @"
b10101 #
1!
#1050
0!
#1075
1=
b110 )
b110 -
1E
1@
b11111111111111111111111111111111 (
b11111111111111111111111111111111 1
b11111111111111111111111111111111 L
0>
b0 F
b0 d
b100 '
b100 8"
14
b10 \
b10 3"
b0 j
b0 F"
b0 h
b0 E"
b0 ;
b0 e
b0 ~
b10100 /"
b10100 ?"
b11111110000000001000111011100011 y
b11111110000000001000111011100011 !"
b0 k
b0 i
b0 l
b0 C"
b0 D"
b0 ?
b0 a
b0 `
b10100 :
b10100 ."
b10100 3
b10100 9
b101 Q
b101 2"
b101 >"
b101 &
b101 1"
b100100 /
b100100 -"
b100000 0
b100000 z
b100000 ""
b100000 @"
b0 |
b0 }
b0 <
b0 m
b0 {
17
b10000 6
b10000 p
b10000 N
b10000 b
b10000 q
b1000 5
b1000 x
b1000 0"
b10 ]
b10 t
b101 u
b101 :"
0o
b1 ,
b1 n
0M
b1 V
b1 X
b1 %"
b11 H
b11 T
b100 I
b100 S
b100 #"
b100 6"
b100 <"
1Y
b10110 #
1!
#1100
0!
#1125
b11 )
b11 -
b0 (
b0 1
b0 L
0=
02
04
b11000 /"
b11000 ?"
b0 '
b0 8"
b0 :
b0 ."
b0 \
b0 3"
b0 &
b0 1"
b100 ,"
b100 5"
b100 ;"
b100 B"
b0 3
b0 9
b0 Q
b0 2"
b0 >"
b11111110000000000000110011100011 y
b11111110000000000000110011100011 !"
b1 8
b1 Z
b1 )"
b1 A"
b100 &"
b100 *"
b10000 V
b10000 X
b10000 %"
b101 H
b101 T
b11111111111111111111111111111111 I
b11111111111111111111111111111111 S
b11111111111111111111111111111111 #"
b11111111111111111111111111111111 6"
b11111111111111111111111111111111 <"
0W
07
b0 6
b0 p
b0 N
b0 b
b0 q
b0 5
b0 x
b0 0"
b0 ]
b0 t
b0 ^
b0 r
b0 u
b0 :"
b0 s
b0 4"
b0 ,
b0 n
b11000 /
b11000 -"
b10100 0
b10100 z
b10100 ""
b10100 @"
b10111 #
1!
#1150
0!
#1175
0E
0@
1>
b1 F
b1 d
b11111111111111111111111111111100 ;
b11111111111111111111111111111100 e
b11111111111111111111111111111100 ~
b10011 y
b10011 !"
b11100 /"
b11100 ?"
b1111111 f
b11001 l
b1100011 ?
b1100 :
b1100 ."
b11111111111111111111111111111111 ,"
b11111111111111111111111111111111 5"
b11111111111111111111111111111111 ;"
b11111111111111111111111111111111 B"
b11100 /
b11100 -"
b11000 0
b11000 z
b11000 ""
b11000 @"
b11111110000000000000110011100011 |
b11111110000000000000110011100011 }
b10100 <
b10100 m
b10100 {
1o
1M
b0 V
b0 X
b0 %"
b0 H
b0 T
b0 I
b0 S
b0 #"
b0 6"
b0 <"
b10000 Z
b10000 )"
b10000 A"
b11111111111111111111111111111111 &"
b11111111111111111111111111111111 *"
0Y
b11000 #
1!
#1200
0!
